{
    "beta": 10,
    "mu": 4,
    "complex": false,
    "sim per device": 0,
    "measurement time": 4,
    "thermalisation time": 1,
    "hloc": {
        "one body": [ 
            [ 0, 0 ], 
            [ 0, 0 ] ],
        "two body": [ 0, 0, 0, 0, 0, 0, 4, 0, 0, 4, 0, 0, 0, 0, 0, 0 ]
    },
    "hybridisation": {
        "functions": "hyb.json",
        "matrix": [ 
            [ "A", "" ], 
            [ "", "A" ] ]
    },
    "partition": {
        "green basis": "matsubara",
        "green bulla": true,
        "green matsubara cutoff": 35,
        "occupation susceptibility bulla": true,
        "occupation susceptibility direct": false,
        "quantum number susceptibility": false,
        "quantum numbers": {
            "N": [ 1, 1 ],
            "Sz": [ 0.5, -0.5 ]
        },
        "susceptibility cutoff": 50,
        "susceptibility tail": 200
    },
    "green-": {
        "basis": "matsubara",
        "cutoff": 50,
        "meas": [ "imprsum" ]
    },
    "susc ph-": {
        "basis": "matsubara",
        "cutoff": 50,
        "meas": [ "" ]
    },
    "susc pp-": {
        "basis": "matsubara",
        "cutoff": 50,
        "meas": [ "" ]
    },
    "hedin ph-": {
        "basis": "matsubara",
        "fermion cutoff": 100,
	"boson cutoff": 50,
        "meas": [ "imprsum" ]
    },
    "hedin pp-": {
        "basis": "matsubara",
        "fermion cutoff": 100,
	"boson cutoff": 50,
        "meas": [ "imprsum" ]
    },
    "vertex-": {
        "basis": "matsubara",
        "fermion cutoff": 25,
	"boson cutoff": 10,
        "meas": [ "imprsum" ],
	"full": true
    },
    "kernels-": {
        "asymptotic cutoff": 5,
        "boson cutoff": 11,
        "fermion cutoff": 20,
	"basis": "matsubara"
    }
}
